{
	"rooms": [{
			"name": "B1",
			"coord1": "0",
			"coord2": "7",
			"left": "nil",
			"right": "H1",
			"up": "B2",
			"down": "H17"
		},
		{
			"name": "B2",
			"coord1": "0",
			"coord2": "6",
			"left": "nil",
			"right": "H2",
			"up": "B3",
			"down": "B1"
		},
		{
			"name": "B3",
			"coord1": "0",
			"coord2": "5",
			"left": "nil",
			"right": "H3",
			"up": "B4",
			"down": "B2"
		},
		{
			"name": "B4",
			"coord1": "0",
			"coord2": "4",
			"left": "nil",
			"right": "H4",
			"up": "B5",
			"down": "B3"
		},
		{
			"name": "B5",
			"coord1": "0",
			"coord2": "3",
			"left": "nil",
			"right": "H5",
			"up": "B6",
			"down": "B4"
		},
		{
			"name": "B6",
			"coord1": "0",
			"coord2": "2",
			"left": "nil",
			"right": "H6",
			"up": "B7",
			"down": "B5"
		},
		{
			"name": "B7",
			"coord1": "0",
			"coord2": "1",
			"left": "nil",
			"right": "H7",
			"up": "B8",
			"down": "B6"
		},
		{
			"name": "B8",
			"coord1": "0",
			"coord2": "0",
			"left": "nil",
			"right": "B9",
			"up": "nil",
			"down": "B7"
		},
		{
			"name": "B9",
			"coord1": "1",
			"coord2": "0",
			"left": "B8",
			"right": "B10",
			"up": "nil",
			"down": "H7"
		},
		{
			"name": "B10",
			"coord1": "2",
			"coord2": "0",
			"left": "B9",
			"right": "B23",
			"up": "nil",
			"down": "H8"
		},
		{
			"name": "B11",
			"coord1": "2",
			"coord2": "2",
			"left": "H6",
			"right": "B22",
			"up": "H8",
			"down": "B12"
		},
		{
			"name": "B12",
			"coord1": "2",
			"coord2": "3",
			"left": "H5",
			"right": "B21",
			"up": "B11",
			"down": "B13"
		},
		{
			"name": "B13",
			"coord1": "2",
			"coord2": "4",
			"left": "H4",
			"right": "B20",
			"up": "B12",
			"down": "B14"
		},
		{
			"name": "B14",
			"coord1": "2",
			"coord2": "5",
			"left": "H3",
			"right": "B19",
			"up": "B13",
			"down": "B15"
		},
		{
			"name": "B15",
			"coord1": "2",
			"coord2": "6",
			"left": "H2",
			"right": "B18",
			"up": "B14",
			"down": "B16"
		},
		{
			"name": "B15",
			"coord1": "2",
			"coord2": "6",
			"left": "H2",
			"right": "B18",
			"up": "B14",
			"down": "B16"
		},
		{
			"name": "B16",
			"coord1": "2",
			"coord2": "7",
			"left": "H1",
			"right": "B17",
			"up": "B15",
			"down": "H19"
		},
		{
			"name": "B17",
			"coord1": "3",
			"coord2": "7",
			"left": "B16",
			"right": "H16",
			"up": "B18",
			"down": "H20"
		},
		{
			"name": "B18",
			"coord1": "3",
			"coord2": "6",
			"left": "B15",
			"right": "H15",
			"up": "B19",
			"down": "B17"
		},
		{
			"name": "B19",
			"coord1": "3",
			"coord2": "5",
			"left": "B14",
			"right": "H14",
			"up": "B20",
			"down": "B18"
		},
		{
			"name": "B20",
			"coord1": "3",
			"coord2": "4",
			"left": "B13",
			"right": "H13",
			"up": "B21",
			"down": "B19"
		},
		{
			"name": "B21",
			"coord1": "3",
			"coord2": "3",
			"left": "B12",
			"right": "H12",
			"up": "B22",
			"down": "B20"
		},
		{
			"name": "B22",
			"coord1": "3",
			"coord2": "2",
			"left": "B11",
			"right": "H11",
			"up": "H9",
			"down": "B21"
		},
		{
			"name": "B23",
			"coord1": "3",
			"coord2": "0",
			"left": "B10",
			"right": "B24",
			"up": "nil",
			"down": "H9"
		},
		{
			"name": "B24",
			"coord1": "4",
			"coord2": "0",
			"left": "B23",
			"right": "B25",
			"up": "nil",
			"down": "H10"
		},
		{
			"name": "B25",
			"coord1": "5",
			"coord2": "0",
			"left": "B25",
			"right": "nil",
			"up": "nil",
			"down": "B26"
		},
		{
			"name": "B26",
			"coord1": "5",
			"coord2": "1",
			"left": "H10",
			"right": "nil",
			"up": "B25",
			"down": "B27"
		},
		{
			"name": "B27",
			"coord1": "5",
			"coord2": "2",
			"left": "H11",
			"right": "nil",
			"up": "B26",
			"down": "B28"
		},
		{
			"name": "B27",
			"coord1": "5",
			"coord2": "2",
			"left": "H11",
			"right": "nil",
			"up": "B26",
			"down": "B28"
		},
		{
			"name": "B28",
			"coord1": "5",
			"coord2": "3",
			"left": "H12",
			"right": "nil",
			"up": "B27",
			"down": "B29"
		},
		{
			"name": "B29",
			"coord1": "5",
			"coord2": "4",
			"left": "H13",
			"right": "nil",
			"up": "B28",
			"down": "B30"
		},
		{
			"name": "B30",
			"coord1": "5",
			"coord2": "5",
			"left": "H14",
			"right": "nil",
			"up": "B29",
			"down": "B31"
		},
		{
			"name": "B31",
			"coord1": "5",
			"coord2": "6",
			"left": "H15",
			"right": "nil",
			"up": "B30",
			"down": "B32"
		},
		{
			"name": "B32",
			"coord1": "5",
			"coord2": "7",
			"left": "H16",
			"right": "nil",
			"up": "B31",
			"down": "H22"
		},
		{
			"name": "H1",
			"coord1": "1",
			"coord2": "7",
			"left": "B1",
			"right": "B16",
			"up": "H2",
			"down": "H18"
		},
		{
			"name": "H2",
			"coord1": "1",
			"coord2": "6",
			"left": "B2",
			"right": "B15",
			"up": "H3",
			"down": "H1"
		},
		{
			"name": "H3",
			"coord1": "1",
			"coord2": "5",
			"left": "B3",
			"right": "B14",
			"up": "H4",
			"down": "H2"
		},
		{
			"name": "H4",
			"coord1": "1",
			"coord2": "4",
			"left": "B4",
			"right": "B13",
			"up": "H5",
			"down": "H3"
		},
		{
			"name": "H5",
			"coord1": "1",
			"coord2": "3",
			"left": "B5",
			"right": "B12",
			"up": "H6",
			"down": "H4"
		},
		{
			"name": "H6",
			"coord1": "1",
			"coord2": "2",
			"left": "B6",
			"right": "B11",
			"up": "H7",
			"down": "H5"
		},
		{
			"name": "H7",
			"coord1": "1",
			"coord2": "1",
			"left": "B7",
			"right": "B10",
			"up": "B9",
			"down": "H6"
		},
		{
			"name": "H8",
			"coord1": "2",
			"coord2": "1",
			"left": "H7",
			"right": "H9",
			"up": "B10",
			"down": "B11"
		},
		{
			"name": "H9",
			"coord1": "3",
			"coord2": "1",
			"left": "H8",
			"right": "H10",
			"up": "B23",
			"down": "B22"
		},
		{
			"name": "H10",
			"coord1": "4",
			"coord2": "1",
			"left": "H9",
			"right": "B26",
			"up": "B24",
			"down": "H11"
		},
		{
			"name": "H11",
			"coord1": "4",
			"coord2": "2",
			"left": "B22",
			"right": "B27",
			"up": "H10",
			"down": "H12"
		},
		{
			"name": "H12",
			"coord1": "4",
			"coord2": "3",
			"left": "B21",
			"right": "B28",
			"up": "H11",
			"down": "H13"
		},
		{
			"name": "H13",
			"coord1": "4",
			"coord2": "4",
			"left": "B20",
			"right": "B29",
			"up": "H12",
			"down": "H14"
		},
		{
			"name": "H13",
			"coord1": "4",
			"coord2": "4",
			"left": "B20",
			"right": "B29",
			"up": "H12",
			"down": "H14"
		},
		{
			"name": "H14",
			"coord1": "4",
			"coord2": "5",
			"left": "B19",
			"right": "B30",
			"up": "H13",
			"down": "H15"
		}, {
			"name": "H15",
			"coord1": "4",
			"coord2": "6",
			"left": "B18",
			"right": "B31",
			"up": "H14",
			"down": "H16"
		},
		{
			"name": "H16",
			"coord1": "4",
			"coord2": "7",
			"left": "B17",
			"right": "B32",
			"up": "H15",
			"down": "H21"
		},
		{
			"name": "H17",
			"coord1": "0",
			"coord2": "8",
			"left": "nil",
			"right": "H18",
			"up": "B1",
			"down": "nil"
		},
		{
			"name": "H18",
			"coord1": "1",
			"coord2": "8",
			"left": "H17",
			"right": "H19",
			"up": "H1",
			"down": "nil"
		},
		{
			"name": "H19",
			"coord1": "2",
			"coord2": "8",
			"left": "H18",
			"right": "H20",
			"up": "B16",
			"down": "nil"
		},
		{
			"name": "H20",
			"coord1": "3",
			"coord2": "8",
			"left": "H19",
			"right": "H21",
			"up": "B17",
			"down": "nil"
		},
		{
			"name": "H21",
			"coord1": "4",
			"coord2": "8",
			"left": "H20",
			"right": "H22",
			"up": "H16",
			"down": "nil"
		}, {
			"name": "H22",
			"coord1": "5",
			"coord2": "8",
			"left": "H21",
			"right": "nil",
			"up": "B32",
			"down": "nil"
		}

	]
}